wavedata.vcd
$date
	Mon Jun 22 08:49:26 2020
$end
$version
	Icarus Verilog
$end
$timescale
	100ps
$end
$scope module test $end
$var wire 1 ! write_memory $end
$var wire 1 " write_data_memory $end
$var wire 1 # read_memory $end
$var wire 1 $ read_ins_memory $end
$var wire 1 % read_ins $end
$var wire 1 & read_data_memory $end
$var wire 32 ' pc [31:0] $end
$var wire 8 ( memory_writedata [7:0] $end
$var wire 8 ) memory_readdata [7:0] $end
$var wire 8 * memory_address [7:0] $end
$var wire 32 + instruction [31:0] $end
$var wire 6 , ins_memory_address [5:0] $end
$var wire 32 - data_memory_writedata [31:0] $end
$var wire 32 . data_memory_readdata [31:0] $end
$var wire 6 / data_memory_address [5:0] $end
$var wire 128 0 cache_memory_readdata [127:0] $end
$var wire 1 1 busywait_memory $end
$var wire 1 2 busywait_ins_memory $end
$var wire 1 3 busywait_ins $end
$var wire 1 4 busywait $end
$var reg 1 5 clk $end
$var reg 1 6 reset $end
$scope module mycache_memory $end
$var wire 1 5 clock $end
$var wire 1 7 hit $end
$var wire 32 8 memory_writedata [31:0] $end
$var wire 1 6 reset $end
$var wire 8 9 writedata [7:0] $end
$var wire 1 ! write $end
$var wire 8 : word4 [7:0] $end
$var wire 8 ; word3 [7:0] $end
$var wire 8 < word2 [7:0] $end
$var wire 8 = word1 [7:0] $end
$var wire 1 > valid $end
$var wire 1 ? tag_comparison $end
$var wire 3 @ tag_cache [2:0] $end
$var wire 3 A tag [2:0] $end
$var wire 8 B readdata [7:0] $end
$var wire 1 # read $end
$var wire 2 C offset [1:0] $end
$var wire 32 D memory_readdata [31:0] $end
$var wire 3 E index [2:0] $end
$var wire 1 F dirty $end
$var wire 1 1 busywait_memory $end
$var wire 32 G block [31:0] $end
$var wire 8 H address [7:0] $end
$var reg 1 4 busywait $end
$var reg 6 I memory_address [5:0] $end
$var reg 1 J read_back $end
$var reg 1 K read_do $end
$var reg 1 & read_memory $end
$var reg 1 L write_cache $end
$var reg 1 M write_do $end
$var reg 1 " write_memory $end
$var integer 32 N i [31:0] $end
$scope module mux_select_word $end
$var wire 8 O data1 [7:0] $end
$var wire 8 P data2 [7:0] $end
$var wire 8 Q data3 [7:0] $end
$var wire 8 R data4 [7:0] $end
$var wire 2 S select [1:0] $end
$var reg 8 T out [7:0] $end
$upscope $end
$upscope $end
$scope module mycpu $end
$var wire 1 5 CLK $end
$var wire 1 6 RESET $end
$var wire 1 U branch_en $end
$var wire 1 4 busywait $end
$var wire 8 V memory_readdata [7:0] $end
$var wire 8 W memory_writedata [7:0] $end
$var wire 1 X zero $end
$var wire 1 Y wrten $end
$var wire 1 ! write_memory $end
$var wire 8 Z write_data [7:0] $end
$var wire 8 [ regout2 [7:0] $end
$var wire 8 \ regout1 [7:0] $end
$var wire 1 # read_memory $end
$var wire 32 ] pc_final_out [31:0] $end
$var wire 32 ^ pc_add_out [31:0] $end
$var wire 32 _ out_branch [31:0] $end
$var wire 8 ` operand2 [7:0] $end
$var wire 1 a mux_writedata_select $end
$var wire 8 b mux_out_cmplmnt [7:0] $end
$var wire 1 c mux_immd_select $end
$var wire 1 d mux_cmplmnt_select $end
$var wire 8 e memory_address [7:0] $end
$var wire 32 f jumpadrress [31:0] $end
$var wire 1 g jump $end
$var wire 8 h cmplmnt_reg2 [7:0] $end
$var wire 1 3 busywait_ins $end
$var wire 1 i branch $end
$var wire 8 j alu_result [7:0] $end
$var wire 3 k alu_op [2:0] $end
$var wire 32 l INSTRUCTION [31:0] $end
$var reg 32 m PC [31:0] $end
$var reg 8 n immediate [7:0] $end
$var reg 8 o opcode [7:0] $end
$var reg 1 % read_ins $end
$var reg 8 p readreg1 [7:0] $end
$var reg 8 q readreg2 [7:0] $end
$var reg 8 r writereg [7:0] $end
$scope module mux_branch $end
$var wire 32 s in2 [31:0] $end
$var wire 1 U select $end
$var wire 32 t in1 [31:0] $end
$var reg 32 u out [31:0] $end
$upscope $end
$scope module mux_cmplmt $end
$var wire 8 v in2 [7:0] $end
$var wire 1 d select $end
$var wire 8 w in1 [7:0] $end
$var reg 8 x out [7:0] $end
$upscope $end
$scope module mux_immd $end
$var wire 8 y in1 [7:0] $end
$var wire 8 z in2 [7:0] $end
$var wire 1 c select $end
$var reg 8 { out [7:0] $end
$upscope $end
$scope module mux_jump $end
$var wire 32 | in2 [31:0] $end
$var wire 1 g select $end
$var wire 32 } in1 [31:0] $end
$var reg 32 ~ out [31:0] $end
$upscope $end
$scope module mux_writedata $end
$var wire 8 !" in1 [7:0] $end
$var wire 1 a select $end
$var wire 8 "" in2 [7:0] $end
$var reg 8 #" out [7:0] $end
$upscope $end
$scope module myaddadrress $end
$var wire 8 $" immediate [7:0] $end
$var wire 32 %" pc [31:0] $end
$var wire 32 &" out [31:0] $end
$var reg 32 '" temp [31:0] $end
$upscope $end
$scope module myalu $end
$var wire 8 (" DATA2 [7:0] $end
$var wire 1 X ZERO $end
$var wire 8 )" address_op [7:0] $end
$var wire 8 *" and_op [7:0] $end
$var wire 8 +" forward_op [7:0] $end
$var wire 8 ," or_op [7:0] $end
$var wire 6 -" outand [5:0] $end
$var wire 8 ." out [7:0] $end
$var wire 8 /" add_op [7:0] $end
$var wire 3 0" SELECT [2:0] $end
$var wire 8 1" DATA1 [7:0] $end
$var reg 8 2" ADDRESS [7:0] $end
$var reg 8 3" RESULT [7:0] $end
$upscope $end
$scope module mycontrol $end
$var wire 1 4 busy_wait $end
$var wire 8 4" op_code [7:0] $end
$var wire 8 5" opcode [7:0] $end
$var wire 32 6" instration [31:0] $end
$var wire 1 3 busywait_ins $end
$var reg 3 7" alu_op [2:0] $end
$var reg 1 i branch $end
$var reg 1 g jump $end
$var reg 1 d mux_cmplmnt_select $end
$var reg 1 c mux_immd_select $end
$var reg 1 a mux_writedata_select $end
$var reg 1 # read_memory $end
$var reg 1 ! write_memory $end
$var reg 1 Y wrten $end
$upscope $end
$scope module myreg_file $end
$var wire 1 5 CLK $end
$var wire 8 8" IN [7:0] $end
$var wire 3 9" INADDRESS [2:0] $end
$var wire 3 :" OUT1ADDRESS [2:0] $end
$var wire 3 ;" OUT2ADDRESS [2:0] $end
$var wire 1 6 RESET $end
$var wire 1 Y WRITE $end
$var reg 8 <" OUT1 [7:0] $end
$var reg 8 =" OUT2 [7:0] $end
$var integer 32 >" j [31:0] $end
$upscope $end
$upscope $end
$scope module mydata_memory $end
$var wire 6 ?" address [5:0] $end
$var wire 1 5 clock $end
$var wire 1 & read $end
$var wire 1 6 reset $end
$var wire 1 " write $end
$var wire 32 @" writedata [31:0] $end
$var reg 1 1 busywait $end
$var reg 1 A" readaccess $end
$var reg 32 B" readdata [31:0] $end
$var reg 1 C" writeaccess $end
$var integer 32 D" i [31:0] $end
$upscope $end
$scope module myins_cache $end
$var wire 1 5 clk $end
$var wire 32 E" pc [31:0] $end
$var wire 1 % read_ins $end
$var wire 1 6 reset $end
$var wire 1 F" valid $end
$var wire 3 G" tag_read [2:0] $end
$var wire 1 H" tag_comparison $end
$var wire 3 I" tag [2:0] $end
$var wire 2 J" offset [1:0] $end
$var wire 128 K" memory_readdata [127:0] $end
$var wire 32 L" instruction [31:0] $end
$var wire 6 M" ins_memory_address [5:0] $end
$var wire 3 N" index [2:0] $end
$var wire 1 O" hit $end
$var wire 1 2 busywait_ins_memory $end
$var wire 128 P" block [127:0] $end
$var reg 1 3 busywait_ins $end
$var reg 1 Q" memory_access $end
$var reg 1 $ read_ins_memory $end
$var reg 1 R" write_cache $end
$var integer 32 S" i [31:0] $end
$upscope $end
$scope module myins_memory $end
$var wire 6 T" address [5:0] $end
$var wire 1 5 clock $end
$var wire 1 $ read $end
$var reg 1 2 busywait $end
$var reg 1 U" readaccess $end
$var reg 128 V" readdata [127:0] $end
$upscope $end
$upscope $end
$enddefinitions $end
#0
$dumpvars
bx V"
0U"
bx T"
b111 S"
xR"
xQ"
bx P"
xO"
bx N"
bx M"
bx L"
bx K"
bx J"
bx I"
xH"
bx G"
xF"
bx E"
b100000000 D"
0C"
bx B"
0A"
bx @"
bx ?"
bx >"
bx ="
bx <"
bx ;"
bx :"
bx 9"
bx 8"
bx 7"
bx 6"
bx 5"
bx 4"
bx 3"
bx 2"
bx 1"
bx 0"
bx /"
bx ."
bx -"
bx ,"
bx +"
bx *"
bx )"
bx ("
bx '"
bx &"
bx %"
bx $"
bx #"
bx ""
bx !"
bx ~
bx }
bx |
bx {
bx z
bx y
bx x
bx w
bx v
bx u
bx t
bx s
bx r
bx q
bx p
bx o
bx n
bx m
bx l
bx k
bx j
xi
bx h
xg
bx f
bx e
xd
xc
bx b
xa
bx `
bx _
bx ^
bx ]
bx \
bx [
bx Z
xY
xX
bx W
bx V
xU
bx T
bx S
bx R
bx Q
bx P
bx O
b1000 N
xM
xL
xK
xJ
bx I
bx H
bx G
xF
bx E
bx D
bx C
bx B
bx A
bx @
x?
x>
bx =
bx <
bx ;
bx :
bx 9
bx 8
x7
16
15
04
03
02
01
bx 0
bx /
bx .
bx -
bx ,
bx +
bx *
bx )
bx (
bx '
0&
x%
x$
0#
0"
0!
$end
#10
b11 J"
b111 N"
b111 I"
b111111 ,
b111111 M"
b111111 T"
b11111111111111111111111111111100 '
b11111111111111111111111111111100 m
b11111111111111111111111111111100 E"
0%
06
#20
b0 ]
b0 ~
b0 _
b0 u
b0 |
b0 ^
b0 s
b0 %"
b1000 >"
#40
05
#80
15
#90
b0 J"
b0 N"
b0 I"
b0 ,
b0 M"
b0 T"
1%
b0 '
b0 m
b0 E"
#100
0U
1U"
12
0i
0g
0Y
1$
13
0O"
b100 ]
b100 ~
b0 P"
0F"
b0 G"
b100 _
b100 u
b100 |
b100 ^
b100 s
b100 %"
#109
1H"
#120
05
#160
1Q"
15
#200
05
#240
15
#280
05
#320
15
#360
05
#400
15
#440
05
#480
15
#520
05
#560
15
bx00000010 0
bx00000010 K"
bx00000010 V"
#600
05
#640
15
#680
05
#720
15
#760
05
#800
15
#840
05
#880
15
#920
05
#960
15
bx0000000000000010 0
bx0000000000000010 K"
bx0000000000000010 V"
#1000
05
#1040
15
#1080
05
#1120
15
#1160
05
#1200
15
#1240
05
#1280
15
#1320
05
#1360
15
bx000000000000000000000010 0
bx000000000000000000000010 K"
bx000000000000000000000010 V"
#1400
05
#1440
15
#1480
05
#1520
15
#1560
05
#1600
15
#1640
05
#1680
15
#1720
05
#1760
15
bx00000101000000000000000000000010 0
bx00000101000000000000000000000010 K"
bx00000101000000000000000000000010 V"
#1800
05
#1840
15
#1880
05
#1920
15
#1960
05
#2000
15
#2040
05
#2080
15
#2120
05
#2160
15
bx0000001000000101000000000000000000000010 0
bx0000001000000101000000000000000000000010 K"
bx0000001000000101000000000000000000000010 V"
#2200
05
#2240
15
#2280
05
#2320
15
#2360
05
#2400
15
#2440
05
#2480
15
#2520
05
#2560
15
bx000000000000001000000101000000000000000000000010 0
bx000000000000001000000101000000000000000000000010 K"
bx000000000000001000000101000000000000000000000010 V"
#2600
05
#2640
15
#2680
05
#2720
15
#2760
05
#2800
15
#2840
05
#2880
15
#2920
05
#2960
15
bx00000001000000000000001000000101000000000000000000000010 0
bx00000001000000000000001000000101000000000000000000000010 K"
bx00000001000000000000001000000101000000000000000000000010 V"
#3000
05
#3040
15
#3080
05
#3120
15
#3160
05
#3200
15
#3240
05
#3280
15
#3320
05
#3360
15
bx0000010100000001000000000000001000000101000000000000000000000010 0
bx0000010100000001000000000000001000000101000000000000000000000010 K"
bx0000010100000001000000000000001000000101000000000000000000000010 V"
#3400
05
#3440
15
#3480
05
#3520
15
#3560
05
#3600
15
#3640
05
#3680
15
#3720
05
#3760
15
bx000000010000010100000001000000000000001000000101000000000000000000000010 0
bx000000010000010100000001000000000000001000000101000000000000000000000010 K"
bx000000010000010100000001000000000000001000000101000000000000000000000010 V"
#3800
05
#3840
15
#3880
05
#3920
15
#3960
05
#4000
15
#4040
05
#4080
15
#4120
05
#4160
15
bx00000000000000010000010100000001000000000000001000000101000000000000000000000010 0
bx00000000000000010000010100000001000000000000001000000101000000000000000000000010 K"
bx00000000000000010000010100000001000000000000001000000101000000000000000000000010 V"
#4200
05
#4240
15
#4280
05
#4320
15
#4360
05
#4400
15
#4440
05
#4480
15
#4520
05
#4560
15
bx0000001000000000000000010000010100000001000000000000001000000101000000000000000000000010 0
bx0000001000000000000000010000010100000001000000000000001000000101000000000000000000000010 K"
bx0000001000000000000000010000010100000001000000000000001000000101000000000000000000000010 V"
#4600
05
#4640
15
#4680
05
#4720
15
#4760
05
#4800
15
#4840
05
#4880
15
#4920
05
#4960
15
bx000001000000001000000000000000010000010100000001000000000000001000000101000000000000000000000010 0
bx000001000000001000000000000000010000010100000001000000000000001000000101000000000000000000000010 K"
bx000001000000001000000000000000010000010100000001000000000000001000000101000000000000000000000010 V"
#5000
05
#5040
15
#5080
05
#5120
15
#5160
05
#5200
15
#5240
05
#5280
15
#5320
05
#5360
15
bx00000000000001000000001000000000000000010000010100000001000000000000001000000101000000000000000000000010 0
bx00000000000001000000001000000000000000010000010100000001000000000000001000000101000000000000000000000010 K"
bx00000000000001000000001000000000000000010000010100000001000000000000001000000101000000000000000000000010 V"
#5400
05
#5440
15
#5480
05
#5520
15
#5560
05
#5600
15
#5640
05
#5680
15
#5720
05
#5760
15
bx0000000000000000000001000000001000000000000000010000010100000001000000000000001000000101000000000000000000000010 0
bx0000000000000000000001000000001000000000000000010000010100000001000000000000001000000101000000000000000000000010 K"
bx0000000000000000000001000000001000000000000000010000010100000001000000000000001000000101000000000000000000000010 V"
#5800
05
#5840
15
#5880
05
#5920
15
#5960
05
#6000
15
#6040
05
#6080
15
#6120
05
#6160
15
bx000000010000000000000000000001000000001000000000000000010000010100000001000000000000001000000101000000000000000000000010 0
bx000000010000000000000000000001000000001000000000000000010000010100000001000000000000001000000101000000000000000000000010 K"
bx000000010000000000000000000001000000001000000000000000010000010100000001000000000000001000000101000000000000000000000010 V"
#6200
05
#6240
15
#6280
05
#6320
15
#6360
05
#6400
15
#6440
05
#6480
15
#6520
05
#6560
1R"
15
0U"
02
b110000000010000000000000000000001000000001000000000000000010000010100000001000000000000001000000101000000000000000000000010 0
b110000000010000000000000000000001000000001000000000000000010000010100000001000000000000001000000101000000000000000000000010 K"
b110000000010000000000000000000001000000001000000000000000010000010100000001000000000000001000000101000000000000000000000010 V"
#6570
0R"
#6580
0Q"
0$
03
1O"
b110000000010000000000000000000001000000001000000000000000010000010100000001000000000000001000000101000000000000000000000010 P"
1F"
#6590
b0 9"
b0 '"
b0 :"
b10 ;"
b10 n
b10 y
b101 o
b101 4"
b0 r
b0 $"
b0 p
b10 q
b101000000000000000000000010 +
b101000000000000000000000010 l
b101000000000000000000000010 6"
b101000000000000000000000010 L"
#6600
b10 `
b10 {
b10 ("
0a
b0 k
b0 0"
b0 7"
1c
1Y
b101 5"
05
#6610
0X
b0 -"
b11111101 ."
b10 Z
b10 #"
b10 8"
b10 j
b10 ""
b10 3"
b0x0 *"
bx1x ,"
b10 +"
b10 )"
b0 [
b0 w
b0 ="
b0 (
b0 9
b0 W
b0 \
b0 1"
b0 <"
b100 f
b100 t
b100 }
b100 &"
#6620
b0 b
b0 x
b0 z
b0 h
b0 v
b10 ,"
b0 *"
#6630
b10 /"
#6640
15
#6650
b1 J"
b100 '
b100 m
b100 E"
#6660
b1 9"
b100 '"
b1000 ]
b1000 ~
b1 r
b1 $"
b1000 _
b1000 u
b1000 |
b101000000010000000000000010 +
b101000000010000000000000010 l
b101000000010000000000000010 6"
b101000000010000000000000010 L"
b1000 ^
b1000 s
b1000 %"
#6670
b10 (
b10 9
b10 W
b10 \
b10 1"
b10 <"
#6680
b10 *"
b1100 f
b1100 t
b1100 }
b1100 &"
05
#6690
b100 /"
#6720
15
#6730
b10 J"
b1000 '
b1000 m
b1000 E"
#6740
b1 `
b1 {
b1 ("
b10 9"
b1000 '"
b1 ;"
b1100 ]
b1100 ~
b1 n
b1 y
b100 o
b100 4"
b10 r
b10 $"
b1 q
b1100 _
b1100 u
b1100 |
b100000000100000000000000001 +
b100000000100000000000000001 l
b100000000100000000000000001 6"
b100000000100000000000000001 L"
b1100 ^
b1100 s
b1100 %"
#6750
b11111110 ."
b1 Z
b1 #"
b1 8"
b10 `
b10 {
b10 ("
b10 b
b10 x
b10 z
b1 j
b1 ""
b1 3"
0c
1d
b0 *"
b11 ,"
b1 +"
b1 )"
b100 5"
b10 [
b10 w
b10 ="
#6760
b11111101 ."
b10 Z
b10 #"
b10 8"
b10 j
b10 ""
b10 3"
b10 *"
b10 ,"
b10 +"
b10 )"
b11111110 h
b11111110 v
b10100 f
b10100 t
b10100 }
b10100 &"
05
#6800
15
#6810
b11 J"
b1100 '
b1100 m
b1100 E"
#6820
b1 9"
b100 '"
b0 ;"
b10000 ]
b10000 ~
b0 n
b0 y
b110 o
b110 4"
b1 r
b1 $"
b0 q
b10000 _
b10000 u
b10000 |
b110000000010000000000000000 +
b110000000010000000000000000 l
b110000000010000000000000000 6"
b110000000010000000000000000 L"
b10000 ^
b10000 s
b10000 %"
#6830
xX
bx -"
bx ."
bx Z
bx #"
bx 8"
b10100 ]
b10100 ~
bx j
bx ""
bx 3"
b11111110 `
b11111110 {
b11111110 ("
b11111110 b
b11111110 x
b11111110 z
1g
bx k
bx 0"
bx 7"
xc
xd
0Y
b110 5"
#6840
b11111110 ,"
b11111110 +"
b11111110 )"
05
#6850
b0 /"
#6880
15
#6890
b1 J"
b1 N"
b1 ,
b1 M"
b1 T"
b10100 '
b10100 m
b10100 E"
#6900
b11000 ]
b11000 ~
1U"
12
0g
1$
13
0O"
b10 ;"
b10 n
b10 y
b101 o
b101 4"
b10 q
b0 P"
0F"
b11000 _
b11000 u
b11000 |
b101000000010000000000000010 +
b101000000010000000000000010 l
b101000000010000000000000010 6"
b101000000010000000000000010 L"
b11000 ^
b11000 s
b11000 %"
#6910
b0 -"
0X
b1 ."
b11111110 Z
b11111110 #"
b11111110 8"
bx 9"
b0xxxxxxxx00 '"
bx :"
bx ;"
b11111110 j
b11111110 ""
b11111110 3"
bx `
bx {
bx ("
bx n
bx y
bx o
bx 4"
bx r
bx $"
bx p
bx q
b0 k
b0 0"
b0 7"
1c
1Y
bx +
bx l
bx 6"
bx L"
b101 5"
#6920
xX
bx -"
bx ."
bx Z
bx #"
bx 8"
b11111110 `
b11111110 {
b11111110 ("
bx j
bx ""
bx 3"
xa
bx k
bx 0"
bx 7"
xc
0Y
b0x0 *"
bx1x ,"
bx +"
bx )"
bx 5"
bx [
bx w
bx ="
bx (
bx 9
bx W
bx \
bx 1"
bx <"
05
#6930
bx `
bx {
bx ("
bx b
bx x
bx z
b11111110 +"
b11111110 )"
bx h
bx v
b1111111x ,"
bx0 *"
bx f
bx t
bx }
bx &"
bx /"
#6940
bx *"
bx ,"
bx +"
bx )"
#6960
1Q"
15
#7000
05
#7040
15
#7080
05
#7120
15
#7160
05
#7200
15
#7240
05
#7280
15
#7320
05
#7360
15
b110000000010000000000000000000001000000001000000000000000010000010100000001000000000000001000000101000000000000000000000001 0
b110000000010000000000000000000001000000001000000000000000010000010100000001000000000000001000000101000000000000000000000001 K"
b110000000010000000000000000000001000000001000000000000000010000010100000001000000000000001000000101000000000000000000000001 V"
#7400
05
#7440
15
#7480
05
#7520
15
#7560
05
#7600
15
#7640
05
#7680
15
#7720
05
#7760
15
#7800
05
#7840
15
#7880
05
#7920
15
#7960
05
#8000
15
#8040
05
#8080
15
#8120
05
#8160
15
#8200
05
#8240
15
#8280
05
#8320
15
#8360
05
#8400
15
#8440
05
#8480
15
#8520
05
#8560
15
b110000000010000000000000000000001000000001000000000000000010000010100000001000000000000001000000001000000000000000000000001 0
b110000000010000000000000000000001000000001000000000000000010000010100000001000000000000001000000001000000000000000000000001 K"
b110000000010000000000000000000001000000001000000000000000010000010100000001000000000000001000000001000000000000000000000001 V"
#8600
05
#8640
15
#8680
05
#8720
15
#8760
05
#8800
15
#8840
05
#8880
15
#8920
05
#8960
15
b110000000010000000000000000000001000000001000000000000000010000010100000001000000000000000100000001000000000000000000000001 0
b110000000010000000000000000000001000000001000000000000000010000010100000001000000000000000100000001000000000000000000000001 K"
b110000000010000000000000000000001000000001000000000000000010000010100000001000000000000000100000001000000000000000000000001 V"
#9000
05
#9040
15
#9080
05
#9120
15
#9160
05
#9200
15
#9240
05
#9280
15
#9320
05
#9360
15
#9400
05
#9440
15
#9480
05
#9520
15
#9560
05
#9600
15
#9640
05
#9680
15
#9720
05
#9760
15
b110000000010000000000000000000001000000001000000000000000010000010111111110000000000000000100000001000000000000000000000001 0
b110000000010000000000000000000001000000001000000000000000010000010111111110000000000000000100000001000000000000000000000001 K"
b110000000010000000000000000000001000000001000000000000000010000010111111110000000000000000100000001000000000000000000000001 V"
#9800
05
#9840
15
#9880
05
#9920
15
#9960
05
#10000
15
#10040
05
#10080
15
#10120
05
#10160
15
b110000000010000000000000000000001000000001000000000000000010000011111111110000000000000000100000001000000000000000000000001 0
b110000000010000000000000000000001000000001000000000000000010000011111111110000000000000000100000001000000000000000000000001 K"
b110000000010000000000000000000001000000001000000000000000010000011111111110000000000000000100000001000000000000000000000001 V"
#10200
05
#10240
15
#10280
05
#10320
15
#10360
05
#10400
15
#10440
05
#10480
15
#10520
05
#10560
15
#10600
05
#10640
15
#10680
05
#10720
15
#10760
05
#10800
15
#10840
05
#10880
15
#10920
05
#10960
15
#11000
05
#11040
15
#11080
05
#11120
15
#11160
05
#11200
15
#11240
05
#11280
15
#11320
05
#11360
15
b110000000010000000000000000000001000000000000000000000000010000011111111110000000000000000100000001000000000000000000000001 0
b110000000010000000000000000000001000000000000000000000000010000011111111110000000000000000100000001000000000000000000000001 K"
b110000000010000000000000000000001000000000000000000000000010000011111111110000000000000000100000001000000000000000000000001 V"
#11400
05
#11440
15
#11480
05
#11520
15
#11560
05
#11600
15
#11640
05
#11680
15
#11720
05
#11760
15
b110000000010000000000000000000000000000000000000000000000010000011111111110000000000000000100000001000000000000000000000001 0
b110000000010000000000000000000000000000000000000000000000010000011111111110000000000000000100000001000000000000000000000001 K"
b110000000010000000000000000000000000000000000000000000000010000011111111110000000000000000100000001000000000000000000000001 V"
#11800
05
#11840
15
#11880
05
#11920
15
#11960
05
#12000
15
#12040
05
#12080
15
#12120
05
#12160
15
b110000000010000000000000001000000000000000000000000000000010000011111111110000000000000000100000001000000000000000000000001 0
b110000000010000000000000001000000000000000000000000000000010000011111111110000000000000000100000001000000000000000000000001 K"
b110000000010000000000000001000000000000000000000000000000010000011111111110000000000000000100000001000000000000000000000001 V"
#12200
05
#12240
15
#12280
05
#12320
15
#12360
05
#12400
15
#12440
05
#12480
15
#12520
05
#12560
15
#12600
05
#12640
15
#12680
05
#12720
15
#12760
05
#12800
15
#12840
05
#12880
15
#12920
05
#12960
15
b110000000000000000000000001000000000000000000000000000000010000011111111110000000000000000100000001000000000000000000000001 0
b110000000000000000000000001000000000000000000000000000000010000011111111110000000000000000100000001000000000000000000000001 K"
b110000000000000000000000001000000000000000000000000000000010000011111111110000000000000000100000001000000000000000000000001 V"
#13000
05
#13040
15
#13080
05
#13120
15
#13160
05
#13200
15
#13240
05
#13280
15
#13320
05
#13360
1R"
15
0U"
02
b1000000000000000000000001000000000000000000000000000000010000011111111110000000000000000100000001000000000000000000000001 0
b1000000000000000000000001000000000000000000000000000000010000011111111110000000000000000100000001000000000000000000000001 K"
b1000000000000000000000001000000000000000000000000000000010000011111111110000000000000000100000001000000000000000000000001 V"
#13370
0R"
#13380
0Q"
0$
03
1O"
b1000000000000000000000001000000000000000000000000000000010000011111111110000000000000000100000001000000000000000000000001 P"
1F"
#13390
b110 9"
b11111111111111111111111111111000 '"
b0 :"
b1 ;"
b1 n
b1 y
b111 o
b111 4"
b11111110 r
b11111110 $"
b0 p
b1 q
b111111111100000000000000001 +
b111111111100000000000000001 l
b111111111100000000000000001 6"
b111111111100000000000000001 L"
#13400
xU
0a
1i
b1 k
b1 0"
b1 7"
0c
0d
b111 5"
05
#13410
b10 [
b10 w
b10 ="
b10 (
b10 9
b10 W
b10 \
b10 1"
b10 <"
b10000 f
b10000 t
b10000 }
b10000 &"
#13420
b11111110 `
b11111110 {
b11111110 ("
b11111110 b
b11111110 x
b11111110 z
b11111110 h
b11111110 v
bx1x ,"
b0x0 *"
#13430
b10 *"
b11111110 ,"
b11111110 +"
b11111110 )"
#13440
b10000 ]
b10000 ~
b10000 _
b10000 u
b10000 |
1U
1X
b111111 -"
b11111111 ."
b0 Z
b0 #"
b0 8"
b0 j
b0 ""
b0 3"
b0 /"
15
#13450
b0 J"
b10000 '
b10000 m
b10000 E"
#13460
b0 9"
b0 '"
b1 o
b1 4"
b0 r
b0 $"
b1000000000000000000000001 +
b1000000000000000000000001 l
b1000000000000000000000001 6"
b1000000000000000000000001 L"
b10100 ^
b10100 s
b10100 %"
#13470
b10100 ]
b10100 ~
b10100 _
b10100 u
b10100 |
0U
0i
1Y
b1 5"
#13480
b10100 f
b10100 t
b10100 }
b10100 &"
05
#13520
15
#13530
b1 J"
b10100 '
b10100 m
b10100 E"
#13540
b110 9"
b11111111111111111111111111111000 '"
b11000 ]
b11000 ~
b111 o
b111 4"
b11111110 r
b11111110 $"
b11000 _
b11000 u
b11000 |
b111111111100000000000000001 +
b111111111100000000000000001 l
b111111111100000000000000001 6"
b111111111100000000000000001 L"
b11000 ^
b11000 s
b11000 %"
#13550
b10100 ]
b10100 ~
b10100 _
b10100 u
b10100 |
1U
1i
0Y
b111 5"
b0 (
b0 9
b0 W
b0 \
b0 1"
b0 <"
#13560
b10000 ]
b10000 ~
b10000 _
b10000 u
b10000 |
b0 *"
b10000 f
b10000 t
b10000 }
b10000 &"
05
#13570
b11000 ]
b11000 ~
b11000 _
b11000 u
b11000 |
0U
b0 -"
0X
b1 ."
b11111110 Z
b11111110 #"
b11111110 8"
b11111110 j
b11111110 ""
b11111110 3"
b11111110 /"
#13600
15
#13610
b10 J"
b11000 '
b11000 m
b11000 E"
#13620
b0 9"
b0 '"
b11100 ]
b11100 ~
b0 o
b0 4"
b0 r
b0 $"
b11100 _
b11100 u
b11100 |
b1 +
b1 l
b1 6"
b1 L"
b11100 ^
b11100 s
b11100 %"
#13630
b10 `
b10 {
b10 ("
b10 b
b10 x
b10 z
0i
1d
1Y
b0 5"
#13640
b10 ,"
b10 +"
b10 )"
b11100 f
b11100 t
b11100 }
b11100 &"
05
#13650
b11111101 ."
b10 Z
b10 #"
b10 8"
b10 j
b10 ""
b10 3"
b10 /"
#13680
15
#13690
b11 J"
b11100 '
b11100 m
b11100 E"
#13700
b100000 ]
b100000 ~
b1 o
b1 4"
b100000 _
b100000 u
b100000 |
b1000000000000000000000001 +
b1000000000000000000000001 l
b1000000000000000000000001 6"
b1000000000000000000000001 L"
b100000 ^
b100000 s
b100000 %"
#13710
b11111110 `
b11111110 {
b11111110 ("
b11111110 b
b11111110 x
b11111110 z
0d
b1 5"
b10 (
b10 9
b10 W
b10 \
b10 1"
b10 <"
#13720
b11111110 ,"
b11111110 +"
b11111110 )"
b10 *"
b100000 f
b100000 t
b100000 }
b100000 &"
05
#13730
1X
b111111 -"
b11111111 ."
b0 Z
b0 #"
b0 8"
b0 j
b0 ""
b0 3"
b0 /"
#13760
15
#13770
b0 J"
b10 N"
b10 ,
b10 M"
b10 T"
b100000 '
b100000 m
b100000 E"
#13780
1U"
12
0Y
1$
13
0O"
b100100 ]
b100100 ~
b0 P"
0F"
b100100 _
b100100 u
b100100 |
b100100 ^
b100100 s
b100100 %"
#13790
bx 9"
b0xxxxxxxx00 '"
bx :"
bx ;"
bx n
bx y
bx o
bx 4"
bx r
bx $"
bx p
bx q
bx +
bx l
bx 6"
bx L"
b0 (
b0 9
b0 W
b0 \
b0 1"
b0 <"
#13800
bx -"
xX
bx ."
bx Z
bx #"
bx 8"
bx j
bx ""
bx 3"
xa
bx k
bx 0"
bx 7"
xc
xd
bx 5"
b0 *"
05
#13810
bx [
bx w
bx ="
bx (
bx 9
bx W
bx \
bx 1"
bx <"
bx f
bx t
bx }
bx &"
b11111110 /"
#13820
bx `
bx {
bx ("
bx b
bx x
bx z
bx h
bx v
b1111111x ,"
bx0 *"
#13830
bx *"
bx ,"
bx +"
bx )"
bx /"
#13840
1Q"
15
#13880
05
#13920
15
#13960
05
#14000
15
#14040
05
#14080
15
#14120
05
#14160
15
#14200
05
#14240
15
b10000000000000000000000010000000000000000000000000000000100000111111111100000000000000001000000010000000000000000xxxxxxxx 0
b10000000000000000000000010000000000000000000000000000000100000111111111100000000000000001000000010000000000000000xxxxxxxx K"
b10000000000000000000000010000000000000000000000000000000100000111111111100000000000000001000000010000000000000000xxxxxxxx V"
#14280
05
#14320
15
#14360
05
#14400
15
#14440
05
#14480
15
#14520
05
#14560
15
#14600
05
#14640
15
b100000000000000000000000100000000000000000000000000000001000001111111111000000000000000010000000100000000xxxxxxxxxxxxxxxx 0
b100000000000000000000000100000000000000000000000000000001000001111111111000000000000000010000000100000000xxxxxxxxxxxxxxxx K"
b100000000000000000000000100000000000000000000000000000001000001111111111000000000000000010000000100000000xxxxxxxxxxxxxxxx V"
#14680
05
#14720
15
#14760
05
#14800
15
#14840
05
#14880
15
#14920
05
#14960
15
#15000
05
#15040
15
b1000000000000000000000001000000000000000000000000000000010000011111111110000000000000000100000001xxxxxxxxxxxxxxxxxxxxxxxx 0
b1000000000000000000000001000000000000000000000000000000010000011111111110000000000000000100000001xxxxxxxxxxxxxxxxxxxxxxxx K"
b1000000000000000000000001000000000000000000000000000000010000011111111110000000000000000100000001xxxxxxxxxxxxxxxxxxxxxxxx V"
#15080
05
#15120
15
#15160
05
#15200
15
#15240
05
#15280
15
#15320
05
#15360
15
#15400
05
